{
  "files": {
    "main.css": "/static/css/main.1474fc22.chunk.css",
    "main.js": "/static/js/main.f724d5af.chunk.js",
    "main.js.map": "/static/js/main.f724d5af.chunk.js.map",
    "runtime-main.js": "/static/js/runtime-main.ebcf2a36.js",
    "runtime-main.js.map": "/static/js/runtime-main.ebcf2a36.js.map",
    "static/js/2.30ca5e18.chunk.js": "/static/js/2.30ca5e18.chunk.js",
    "static/js/2.30ca5e18.chunk.js.map": "/static/js/2.30ca5e18.chunk.js.map",
    "index.html": "/index.html",
    "precache-manifest.db16ee51192932c97a94fa55e26989a5.js": "/precache-manifest.db16ee51192932c97a94fa55e26989a5.js",
    "service-worker.js": "/service-worker.js",
    "static/css/main.1474fc22.chunk.css.map": "/static/css/main.1474fc22.chunk.css.map"
  }
}